Lab11/pm.vcd
$date
	Sun Nov 11 14:46:50 2018
$end
$version
	Icarus Verilog
$end
$timescale
	1s
$end
$scope module test $end
$var wire 32 ! PC [31:0] $end
$var reg 1 " clk $end
$var reg 1 # done $end
$var reg 1 $ reset $end
$var integer 32 % i [31:0] $end
$scope module pm $end
$var wire 1 & PCSrc $end
$var wire 1 " clk $end
$var wire 1 $ reset $end
$var wire 1 ' zero $end
$var wire 5 ( wr_regnum [4:0] $end
$var wire 32 ) wr_data [31:0] $end
$var wire 5 * rt [4:0] $end
$var wire 5 + rs [4:0] $end
$var wire 32 , rd2_data [31:0] $end
$var wire 32 - rd1_data [31:0] $end
$var wire 5 . rd [4:0] $end
$var wire 6 / opcode [5:0] $end
$var wire 30 0 next_PC [31:2] $end
$var wire 32 1 load_data [31:0] $end
$var wire 32 2 inst [31:0] $end
$var wire 32 3 imm [31:0] $end
$var wire 6 4 funct [5:0] $end
$var wire 32 5 alu_out_data [31:0] $end
$var wire 1 6 RegWrite $end
$var wire 1 7 RegDst $end
$var wire 30 8 PC_target [31:2] $end
$var wire 30 9 PC_plus4 [31:2] $end
$var wire 32 : PC [31:0] $end
$var wire 1 ; MemWrite $end
$var wire 1 < MemToReg $end
$var wire 1 = MemRead $end
$var wire 32 > B_data [31:0] $end
$var wire 1 ? BEQ $end
$var wire 1 @ ALUSrc $end
$var wire 3 A ALUOp [2:0] $end
$scope module PC_reg $end
$var wire 1 " clk $end
$var wire 1 B enable $end
$var wire 1 $ reset $end
$var wire 30 C d [29:0] $end
$var reg 30 D q [29:0] $end
$upscope $end
$scope module alu $end
$var wire 32 E out [31:0] $end
$var wire 1 ' zero $end
$var wire 32 F inB [31:0] $end
$var wire 32 G inA [31:0] $end
$var wire 3 H control [2:0] $end
$upscope $end
$scope module branch_mux $end
$var wire 30 I out [29:0] $end
$var wire 1 & sel $end
$var wire 30 J temp1 [29:0] $end
$var wire 30 K temp2 [29:0] $end
$var wire 30 L B [29:0] $end
$var wire 30 M A [29:0] $end
$upscope $end
$scope module data_memory $end
$var wire 32 N addr [31:0] $end
$var wire 1 " clk $end
$var wire 32 O d_out [31:0] $end
$var wire 32 P data_out [31:0] $end
$var wire 32 Q internal_data_in [31:0] $end
$var wire 1 $ reset $end
$var wire 1 R valid_address $end
$var wire 1 ; mem_write $end
$var wire 1 = mem_read $end
$var wire 19 S index [18:0] $end
$var wire 32 T data_in [31:0] $end
$var integer 32 U i [31:0] $end
$upscope $end
$scope module decode $end
$var wire 1 @ ALUSrc $end
$var wire 1 < MemToReg $end
$var wire 1 7 RegDst $end
$var wire 1 6 RegWrite $end
$var wire 6 V funct [5:0] $end
$var wire 1 W nop $end
$var wire 6 X opcode [5:0] $end
$var wire 1 Y op0 $end
$var wire 1 ; MemWrite $end
$var wire 1 = MemRead $end
$var wire 1 ? BEQ $end
$var wire 3 Z ALUOp [2:0] $end
$upscope $end
$scope module imem $end
$var wire 30 [ addr [29:0] $end
$var wire 32 \ data [31:0] $end
$var reg 32 ] i [31:0] $end
$upscope $end
$scope module imm_mux $end
$var wire 32 ^ B [31:0] $end
$var wire 32 _ out [31:0] $end
$var wire 1 @ sel $end
$var wire 32 ` temp1 [31:0] $end
$var wire 32 a temp2 [31:0] $end
$var wire 32 b A [31:0] $end
$upscope $end
$scope module next_PC_adder $end
$var wire 30 c in1 [29:0] $end
$var wire 30 d in2 [29:0] $end
$var wire 30 e out [29:0] $end
$upscope $end
$scope module rd_mux $end
$var wire 5 f A [4:0] $end
$var wire 5 g B [4:0] $end
$var wire 5 h out [4:0] $end
$var wire 1 7 sel $end
$var wire 5 i temp1 [4:0] $end
$var wire 5 j temp2 [4:0] $end
$upscope $end
$scope module rf $end
$var wire 1 " clock $end
$var wire 32 k internal_rdData [31:0] $end
$var wire 5 l rdNum [4:0] $end
$var wire 1 6 rdWriteEnable $end
$var wire 1 $ reset $end
$var wire 32 m rsData [31:0] $end
$var wire 5 n rsNum [4:0] $end
$var wire 32 o rtData [31:0] $end
$var wire 5 p rtNum [4:0] $end
$var wire 32 q rdData [31:0] $end
$var integer 32 r i [31:0] $end
$upscope $end
$scope module target_PC_adder $end
$var wire 30 s in1 [29:0] $end
$var wire 30 t in2 [29:0] $end
$var wire 30 u out [29:0] $end
$upscope $end
$scope module wb_mux $end
$var wire 32 v A [31:0] $end
$var wire 32 w B [31:0] $end
$var wire 32 x out [31:0] $end
$var wire 1 < sel $end
$var wire 32 y temp1 [31:0] $end
$var wire 32 z temp2 [31:0] $end
$upscope $end
$upscope $end
$upscope $end
$scope module test $end
$scope module pm $end
$scope module rf $end
$var reg 32 { \r[0] [31:0] $end
$upscope $end
$upscope $end
$upscope $end
$scope module test $end
$scope module pm $end
$scope module rf $end
$var reg 32 | \r[1] [31:0] $end
$upscope $end
$upscope $end
$upscope $end
$scope module test $end
$scope module pm $end
$scope module rf $end
$var reg 32 } \r[2] [31:0] $end
$upscope $end
$upscope $end
$upscope $end
$scope module test $end
$scope module pm $end
$scope module rf $end
$var reg 32 ~ \r[3] [31:0] $end
$upscope $end
$upscope $end
$upscope $end
$scope module test $end
$scope module pm $end
$scope module rf $end
$var reg 32 !" \r[4] [31:0] $end
$upscope $end
$upscope $end
$upscope $end
$scope module test $end
$scope module pm $end
$scope module rf $end
$var reg 32 "" \r[5] [31:0] $end
$upscope $end
$upscope $end
$upscope $end
$scope module test $end
$scope module pm $end
$scope module rf $end
$var reg 32 #" \r[6] [31:0] $end
$upscope $end
$upscope $end
$upscope $end
$scope module test $end
$scope module pm $end
$scope module rf $end
$var reg 32 $" \r[7] [31:0] $end
$upscope $end
$upscope $end
$upscope $end
$scope module test $end
$scope module pm $end
$scope module rf $end
$var reg 32 %" \r[8] [31:0] $end
$upscope $end
$upscope $end
$upscope $end
$scope module test $end
$scope module pm $end
$scope module rf $end
$var reg 32 &" \r[9] [31:0] $end
$upscope $end
$upscope $end
$upscope $end
$scope module test $end
$scope module pm $end
$scope module rf $end
$var reg 32 '" \r[10] [31:0] $end
$upscope $end
$upscope $end
$upscope $end
$scope module test $end
$scope module pm $end
$scope module rf $end
$var reg 32 (" \r[11] [31:0] $end
$upscope $end
$upscope $end
$upscope $end
$scope module test $end
$scope module pm $end
$scope module rf $end
$var reg 32 )" \r[12] [31:0] $end
$upscope $end
$upscope $end
$upscope $end
$scope module test $end
$scope module pm $end
$scope module rf $end
$var reg 32 *" \r[13] [31:0] $end
$upscope $end
$upscope $end
$upscope $end
$scope module test $end
$scope module pm $end
$scope module rf $end
$var reg 32 +" \r[14] [31:0] $end
$upscope $end
$upscope $end
$upscope $end
$scope module test $end
$scope module pm $end
$scope module rf $end
$var reg 32 ," \r[15] [31:0] $end
$upscope $end
$upscope $end
$upscope $end
$scope module test $end
$scope module pm $end
$scope module rf $end
$var reg 32 -" \r[16] [31:0] $end
$upscope $end
$upscope $end
$upscope $end
$scope module test $end
$scope module pm $end
$scope module rf $end
$var reg 32 ." \r[17] [31:0] $end
$upscope $end
$upscope $end
$upscope $end
$scope module test $end
$scope module pm $end
$scope module rf $end
$var reg 32 /" \r[18] [31:0] $end
$upscope $end
$upscope $end
$upscope $end
$scope module test $end
$scope module pm $end
$scope module rf $end
$var reg 32 0" \r[19] [31:0] $end
$upscope $end
$upscope $end
$upscope $end
$scope module test $end
$scope module pm $end
$scope module rf $end
$var reg 32 1" \r[20] [31:0] $end
$upscope $end
$upscope $end
$upscope $end
$scope module test $end
$scope module pm $end
$scope module rf $end
$var reg 32 2" \r[21] [31:0] $end
$upscope $end
$upscope $end
$upscope $end
$scope module test $end
$scope module pm $end
$scope module rf $end
$var reg 32 3" \r[22] [31:0] $end
$upscope $end
$upscope $end
$upscope $end
$scope module test $end
$scope module pm $end
$scope module rf $end
$var reg 32 4" \r[23] [31:0] $end
$upscope $end
$upscope $end
$upscope $end
$scope module test $end
$scope module pm $end
$scope module rf $end
$var reg 32 5" \r[24] [31:0] $end
$upscope $end
$upscope $end
$upscope $end
$scope module test $end
$scope module pm $end
$scope module rf $end
$var reg 32 6" \r[25] [31:0] $end
$upscope $end
$upscope $end
$upscope $end
$scope module test $end
$scope module pm $end
$scope module rf $end
$var reg 32 7" \r[26] [31:0] $end
$upscope $end
$upscope $end
$upscope $end
$scope module test $end
$scope module pm $end
$scope module rf $end
$var reg 32 8" \r[27] [31:0] $end
$upscope $end
$upscope $end
$upscope $end
$scope module test $end
$scope module pm $end
$scope module rf $end
$var reg 32 9" \r[28] [31:0] $end
$upscope $end
$upscope $end
$upscope $end
$scope module test $end
$scope module pm $end
$scope module rf $end
$var reg 32 :" \r[29] [31:0] $end
$upscope $end
$upscope $end
$upscope $end
$scope module test $end
$scope module pm $end
$scope module rf $end
$var reg 32 ;" \r[30] [31:0] $end
$upscope $end
$upscope $end
$upscope $end
$scope module test $end
$scope module pm $end
$scope module rf $end
$var reg 32 <" \r[31] [31:0] $end
$upscope $end
$upscope $end
$upscope $end
$enddefinitions $end
#0
$dumpvars
b10000000000010000000000000000 <"
b10000000000010000000000000000 ;"
b10000000000010000000000000000 :"
b10000000000010000000000000000 9"
b10000000000010000000000000000 8"
b10000000000010000000000000000 7"
b10000000000010000000000000000 6"
b10000000000010000000000000000 5"
b10000000000010000000000000000 4"
b10000000000010000000000000000 3"
b10000000000010000000000000000 2"
b10000000000010000000000000000 1"
b10000000000010000000000000000 0"
b10000000000010000000000000000 /"
b10000000000010000000000000000 ."
b10000000000010000000000000000 -"
b10000000000010000000000000000 ,"
b10000000000010000000000000000 +"
b10000000000010000000000000000 *"
b10000000000010000000000000000 )"
b10000000000010000000000000000 ("
b10000000000010000000000000000 '"
b10000000000010000000000000000 &"
b10000000000010000000000000000 %"
b10000000000010000000000000000 $"
b10000000000010000000000000000 #"
b10000000000010000000000000000 ""
b10000000000010000000000000000 !"
b10000000000010000000000000000 ~
b10000000000010000000000000000 }
b10000000000010000000000000000 |
b0 {
bx z
bx y
bx x
bx w
bx v
bx u
bx t
bx s
b100000 r
bx q
bx p
bx o
bx n
bx m
bx l
bx k
bx j
bx i
bx h
bx g
bx f
bx e
b1 d
bx c
bx b
bx a
bx `
bx _
bx ^
b100000000 ]
bx \
bx [
bx Z
xY
bx X
xW
bx V
b1000000000000000000 U
bx T
bx S
xR
bx Q
bx P
bx O
bx N
bx M
bx L
bx K
bx J
bx I
bx H
bx G
bx F
bx E
bx D
bx C
1B
bx A
x@
x?
bx >
x=
x<
x;
bx00 :
bx 9
bx 8
x7
x6
bx 5
bx 4
bx 3
bx 2
bx 1
bx 0
bx /
bx .
bx -
bx ,
bx +
bx *
bx )
bx (
x'
x&
b100000 %
1$
0#
0"
bx00 !
$end
#3
b100000000000000000000 c
b100000000000000000000 [
b10000000000000000000000 :
b10000000000000000000000 !
b100000000000000000000 D
1"
#5
b0x0000000000000000000x J
b100000000000000000001 9
b100000000000000000001 M
b100000000000000000001 e
b100000000000000000001 s
#6
b0x0 (
b0x0 h
b0x0 l
b0 j
b0x0 i
b0 t
b0 a
b0 4
b0 V
0Y
b100011 /
b100011 X
b0 .
b0 g
b10 *
b10 f
b10 p
b10100 +
b10100 n
b0 3
b0 ^
b10001110100000100000000000000000 2
b10001110100000100000000000000000 \
0"
#7
b0x00000000000x0000000000000000 >
b0x00000000000x0000000000000000 F
b0x00000000000x0000000000000000 _
b0x00000000000x0000000000000000 `
b10000000000010000000000000000 ,
b10000000000010000000000000000 T
b10000000000010000000000000000 b
b10000000000010000000000000000 o
b10000000000010000000000000000 -
b10000000000010000000000000000 G
b10000000000010000000000000000 m
0$
#8
b10 (
b10 h
b10 l
b0 >
b0 F
b0 _
16
b100000000000000000001 0
b100000000000000000001 C
b100000000000000000001 I
b100000000000000000001 J
b10 i
b0 `
b0 K
0&
07
b0 y
1@
b0 A
b0 H
b0 Z
0W
b100000000000000000001 8
b100000000000000000001 L
b100000000000000000001 u
0?
1<
1=
0;
#9
b100000000000000000001 c
b100000000000000000001 [
bx }
b10000000000000000000100 :
b10000000000000000000100 !
b100000000000000000001 D
0'
1"
#10
b1 O
b100000000000000 S
1R
bx ,
bx T
bx b
bx o
b10000000000010000000000000000 5
b10000000000010000000000000000 E
b10000000000010000000000000000 N
b10000000000010000000000000000 v
b10000000000010000000000000000 Q
#11
b100000000000000000010 0
b100000000000000000010 C
b100000000000000000010 I
b100000000000000000010 J
b100000000000000000010 9
b100000000000000000010 M
b100000000000000000010 e
b100000000000000000010 s
#12
b11 (
b11 h
b11 l
b100 >
b100 F
b100 _
b11 i
b100 t
b100 a
b100 4
b100 V
b11 *
b11 f
b11 p
b100 3
b100 ^
b10001110100000110000000000000100 2
b10001110100000110000000000000100 \
0"
#13
b1 )
b1 q
b1 x
b1 z
b10000000000010000000000000000 ,
b10000000000010000000000000000 T
b10000000000010000000000000000 b
b10000000000010000000000000000 o
b1 1
b1 P
b1 w
bx Q
#14
b11111111 O
b100000000000001 S
b1 k
b10000000000010000000000000100 5
b10000000000010000000000000100 E
b10000000000010000000000000100 N
b10000000000010000000000000100 v
b100000000000000000110 8
b100000000000000000110 L
b100000000000000000110 u
#15
b100000000000000000010 c
b100000000000000000010 [
b10000000000000000001000 :
b10000000000000000001000 !
b100000000000000000010 D
b1 ~
1"
#16
b1 ,
b1 T
b1 b
b1 o
b10000000000010000000000000000 Q
#17
b100000000000000000011 0
b100000000000000000011 C
b100000000000000000011 I
b11111111 )
b11111111 q
b11111111 x
b100000000000000000011 J
b11111111 z
b100000000000000000011 9
b100000000000000000011 M
b100000000000000000011 e
b100000000000000000011 s
b11111111 1
b11111111 P
b11111111 w
#18
b100 (
b100 h
b100 l
b1000 >
b1000 F
b1000 _
b100 i
b1000 t
b1000 a
b1000 4
b1000 V
b100 *
b100 f
b100 p
b1000 3
b1000 ^
b11111111 k
b10001110100001000000000000001000 2
b10001110100001000000000000001000 \
0"
#19
b10000000000010000000000000000 ,
b10000000000010000000000000000 T
b10000000000010000000000000000 b
b10000000000010000000000000000 o
b1 Q
#20
b10000000000 O
b100000000000010 S
b10000000000010000000000001000 5
b10000000000010000000000001000 E
b10000000000010000000000001000 N
b10000000000010000000000001000 v
b100000000000000001011 8
b100000000000000001011 L
b100000000000000001011 u
#21
b100000000000000000011 c
b100000000000000000011 [
b11111111 !"
b10000000000000000001100 :
b10000000000000000001100 !
b100000000000000000011 D
1"
#22
b11111111 ,
b11111111 T
b11111111 b
b11111111 o
b10000000000010000000000000000 Q
#23
b100000000000000000100 0
b100000000000000000100 C
b100000000000000000100 I
b10000000000 )
b10000000000 q
b10000000000 x
b100000000000000000100 J
b10000000000 z
b100000000000000000100 9
b100000000000000000100 M
b100000000000000000100 e
b100000000000000000100 s
b10000000000 1
b10000000000 P
b10000000000 w
#24
b101 (
b101 h
b101 l
b1100 >
b1100 F
b1100 _
b101 i
b1100 t
b1100 a
b1100 4
b1100 V
b101 *
b101 f
b101 p
b1100 3
b1100 ^
b10000000000 k
b10001110100001010000000000001100 2
b10001110100001010000000000001100 \
0"
#25
b10000000000010000000000000000 ,
b10000000000010000000000000000 T
b10000000000010000000000000000 b
b10000000000010000000000000000 o
b11111111 Q
#26
b1100100 O
b100000000000011 S
b10000000000010000000000001100 5
b10000000000010000000000001100 E
b10000000000010000000000001100 N
b10000000000010000000000001100 v
b100000000000000010000 8
b100000000000000010000 L
b100000000000000010000 u
#27
b100000000000000000100 c
b100000000000000000100 [
b10000000000000000010000 :
b10000000000000000010000 !
b100000000000000000100 D
b10000000000 ""
1"
#28
b10000000000 ,
b10000000000 T
b10000000000 b
b10000000000 o
b10000000000010000000000000000 Q
#29
b100000000000000000101 0
b100000000000000000101 C
b100000000000000000101 I
b1100100 )
b1100100 q
b1100100 x
b100000000000000000101 J
b1100100 z
b100000000000000000101 9
b100000000000000000101 M
b100000000000000000101 e
b100000000000000000101 s
b1100100 1
b1100100 P
b1100100 w
#30
b110 (
b110 h
b110 l
b10000 >
b10000 F
b10000 _
b110 i
b10000 t
b10000 a
b10000 4
b10000 V
b110 *
b110 f
b110 p
b10000 3
b10000 ^
b1100100 k
b10001110100001100000000000010000 2
b10001110100001100000000000010000 \
0"
#31
b10000000000010000000000000000 ,
b10000000000010000000000000000 T
b10000000000010000000000000000 b
b10000000000010000000000000000 o
b10000000000 Q
#32
b11001000 O
b100000000000100 S
b10000000000010000000000010000 5
b10000000000010000000000010000 E
b10000000000010000000000010000 N
b10000000000010000000000010000 v
b100000000000000010101 8
b100000000000000010101 L
b100000000000000010101 u
#33
b100000000000000000101 c
b100000000000000000101 [
b1100100 #"
b10000000000000000010100 :
b10000000000000000010100 !
b100000000000000000101 D
1"
#34
b1100100 ,
b1100100 T
b1100100 b
b1100100 o
b10000000000010000000000000000 Q
#35
b100000000000000000110 0
b100000000000000000110 C
b100000000000000000110 I
b11001000 )
b11001000 q
b11001000 x
b100000000000000000110 J
b11001000 z
b100000000000000000110 9
b100000000000000000110 M
b100000000000000000110 e
b100000000000000000110 s
b11001000 1
b11001000 P
b11001000 w
#36
b100 >
b100 F
b100 _
b100 t
b100 a
b100 4
b100 V
b101011 /
b101011 X
b100 3
b100 ^
b11001000 k
b10101110100001100000000000000100 2
b10101110100001100000000000000100 \
0"
#37
b1100100 Q
#38
b0 (
b0 h
b0 l
06
b11111111 O
b100000000000001 S
b0 i
b10000000000010000000000000100 )
b10000000000010000000000000100 q
b10000000000010000000000000100 x
17
b10000000000010000000000000100 y
b0 z
b10000000000010000000000000100 5
b10000000000010000000000000100 E
b10000000000010000000000000100 N
b10000000000010000000000000100 v
b100000000000000001010 8
b100000000000000001010 L
b100000000000000001010 u
0<
0=
1;
#39
b100000000000000000110 c
b100000000000000000110 [
b10000000000000000011000 :
b10000000000000000011000 !
b100000000000000000110 D
b1100100 O
b10000000000010000000000000100 k
1"
#41
b100000000000000000111 0
b100000000000000000111 C
b100000000000000000111 I
b100000000000000000111 J
b100000000000000000111 9
b100000000000000000111 M
b100000000000000000111 e
b100000000000000000111 s
b0 1
b0 P
b0 w
#42
b100011 /
b100011 X
b111 *
b111 f
b111 p
b10001110100001110000000000000100 2
b10001110100001110000000000000100 \
0"
#43
b10000000000010000000000000000 ,
b10000000000010000000000000000 T
b10000000000010000000000000000 b
b10000000000010000000000000000 o
b100000000000000001011 8
b100000000000000001011 L
b100000000000000001011 u
#44
b111 (
b111 h
b111 l
16
b111 i
b0 )
b0 q
b0 x
07
b0 y
1<
1=
0;
#45
b100000000000000000111 c
b100000000000000000111 [
b0 $"
b10000000000000000011100 :
b10000000000000000011100 !
b100000000000000000111 D
b0 k
1"
#46
b0 ,
b0 T
b0 b
b0 o
b10000000000010000000000000000 Q
#47
b100000000000000001000 0
b100000000000000001000 C
b100000000000000001000 I
b1100100 )
b1100100 q
b1100100 x
b100000000000000001000 J
b1100100 z
b100000000000000001000 9
b100000000000000001000 M
b100000000000000001000 e
b100000000000000001000 s
b1100100 1
b1100100 P
b1100100 w
#48
b101 (
b101 h
b101 l
b100000000100000 >
b100000000100000 F
b100000000100000 _
b101 i
b100000000100000 t
b100000000100000 a
b100000 4
b100000 V
1Y
b0 /
b0 X
b1000 .
b1000 g
b101 *
b101 f
b101 p
b101 +
b101 n
b100000000100000 3
b100000000100000 ^
b1100100 k
b101001010100000000100000 2
b101001010100000000100000 \
0"
#49
b10000000000 ,
b10000000000 T
b10000000000 b
b10000000000 o
b10000000000 -
b10000000000 G
b10000000000 m
b0 Q
#50
b1000 (
b1000 h
b1000 l
b10000000000 >
b10000000000 F
b10000000000 _
b0 i
b1000 j
b10000000000010000000000000100 )
b10000000000010000000000000100 q
b10000000000010000000000000100 x
b10000000000 `
b0 a
17
b10000000000010000000000000100 y
b0 z
0@
b100000100000000101000 8
b100000100000000101000 L
b100000100000000101000 u
0<
0=
#51
b100000000000000001000 c
b100000000000000001000 [
b10000000000000000100000 :
b10000000000000000100000 !
b100000000000000001000 D
b10000000000010000000000000100 %"
1'
b10000000000010000000000000100 k
1"
#52
b11011110101011011011111011101111 O
b1000000000 S
b100000000000 )
b100000000000 q
b100000000000 x
0R
b100000000000 y
b100000000000 5
b100000000000 E
b100000000000 N
b100000000000 v
b10000000000 Q
#53
b100000000000000001001 0
b100000000000000001001 C
b100000000000000001001 I
b100000000000000001001 J
b100000000000 k
b100000000000000001001 9
b100000000000000001001 M
b100000000000000001001 e
b100000000000000001001 s
b0 1
b0 P
b0 w
#54
b1001 (
b1001 h
b1001 l
b1001 j
b100100000100010 t
b100010 4
b100010 V
b1001 .
b1001 g
b11 *
b11 f
b11 p
b100 +
b100 n
b100100000100010 3
b100100000100010 ^
b100000110100100000100010 2
b100000110100100000100010 \
0"
#55
b1 >
b1 F
b1 _
b1 `
b1 ,
b1 T
b1 b
b1 o
b11111111 -
b11111111 G
b11111111 m
#56
0'
b1 A
b1 H
b1 Z
b100000100100000101011 8
b100000100100000101011 L
b100000100100000101011 u
#57
b100000000000000001001 c
b100000000000000001001 [
b100000000000 &"
b10000000000000000100100 :
b10000000000000000100100 !
b100000000000000001001 D
1"
#58
b111111 S
b11111110 )
b11111110 q
b11111110 x
b11111110 y
b11111110 5
b11111110 E
b11111110 N
b11111110 v
b1 Q
#59
b100000000000000001010 0
b100000000000000001010 C
b100000000000000001010 I
b100000000000000001010 J
b11111110 k
b100000000000000001010 9
b100000000000000001010 M
b100000000000000001010 e
b100000000000000001010 s
#60
b1010 (
b1010 h
b1010 l
b1010 j
b101000000100000 t
b100000 4
b100000 V
b1010 .
b1010 g
b101 *
b101 f
b101 p
b1000 +
b1000 n
b101000000100000 3
b101000000100000 ^
b1000001010101000000100000 2
b1000001010101000000100000 \
0"
#61
b10000000000 >
b10000000000 F
b10000000000 _
b10000000000 `
b10000000000 ,
b10000000000 T
b10000000000 b
b10000000000 o
b10000000000010000000000000100 -
b10000000000010000000000000100 G
b10000000000010000000000000100 m
#62
b0 A
b0 H
b0 Z
b100000101000000101010 8
b100000101000000101010 L
b100000101000000101010 u
#63
b100000000000000001010 c
b100000000000000001010 [
b10000000000000000101000 :
b10000000000000000101000 !
b100000000000000001010 D
b11111110 '"
1"
#64
b100000100000001 S
b10000000000010000010000000100 )
b10000000000010000010000000100 q
b10000000000010000010000000100 x
1R
b10000000000010000010000000100 y
b10000000000010000010000000100 5
b10000000000010000010000000100 E
b10000000000010000010000000100 N
b10000000000010000010000000100 v
b10000000000 Q
#65
b100000000000000001011 0
b100000000000000001011 C
b100000000000000001011 I
b100000000000000001011 J
b10000000000010000010000000100 k
b100000000000000001011 9
b100000000000000001011 M
b100000000000000001011 e
b100000000000000001011 s
#66
b1011 (
b1011 h
b1011 l
b1011 j
b101100000100100 t
b100100 4
b100100 V
b1011 .
b1011 g
b11 *
b11 f
b11 p
b1010 +
b1010 n
b101100000100100 3
b101100000100100 ^
b1010000110101100000100100 2
b1010000110101100000100100 \
0"
#67
b1 >
b1 F
b1 _
b1 `
b1 ,
b1 T
b1 b
b1 o
b11111110 -
b11111110 G
b11111110 m
#68
b10 A
b10 H
b10 Z
b100000101100000101111 8
b100000101100000101111 L
b100000101100000101111 u
#69
b100000000000000001011 c
b100000000000000001011 [
b10000000000010000010000000100 ("
b10000000000000000101100 :
b10000000000000000101100 !
b100000000000000001011 D
1"
#70
b0 S
b0 )
b0 q
b0 x
0R
b0 y
b0 5
b0 E
b0 N
b0 v
b1 Q
#71
b100000000000000001100 0
b100000000000000001100 C
b100000000000000001100 I
b100000000000000001100 J
b0 k
b100000000000000001100 9
b100000000000000001100 M
b100000000000000001100 e
b100000000000000001100 s
#72
b0 (
b0 h
b0 l
b0 j
b0 t
b0 4
b0 V
0Y
b101011 /
b101011 X
b0 .
b0 g
b1011 *
b1011 f
b1011 p
b10100 +
b10100 n
b0 3
b0 ^
b10101110100010110000000000000000 2
b10101110100010110000000000000000 \
0"
#73
b10000000000010000010000000100 >
b10000000000010000010000000100 F
b10000000000010000010000000100 _
b10000000000010000010000000100 `
b10000000000010000010000000100 ,
b10000000000010000010000000100 T
b10000000000010000010000000100 b
b10000000000010000010000000100 o
b10000000000010000000000000000 -
b10000000000010000000000000000 G
b10000000000010000000000000000 m
#74
b0 >
b0 F
b0 _
06
b0 `
1@
b0 A
b0 H
b0 Z
b100000000000000001100 8
b100000000000000001100 L
b100000000000000001100 u
1;
#75
b100000000000000001100 c
b100000000000000001100 [
b10000000000000000110000 :
b10000000000000000110000 !
b100000000000000001100 D
1"
#76
b1 O
b100000000000000 S
b10000000000010000000000000000 )
b10000000000010000000000000000 q
b10000000000010000000000000000 x
1R
b10000000000010000000000000000 y
b10000000000010000000000000000 5
b10000000000010000000000000000 E
b10000000000010000000000000000 N
b10000000000010000000000000000 v
b10000000000010000010000000100 Q
#77
b100000000000000001101 0
b100000000000000001101 C
b100000000000000001101 I
b100000000000000001101 J
b10000000000010000000000000000 k
b100000000000000001101 9
b100000000000000001101 M
b100000000000000001101 e
b100000000000000001101 s
#78
b1 >
b1 F
b1 _
b1 t
b1 a
b1 4
b1 V
b100 /
b100 X
b110 *
b110 f
b110 p
b1000 +
b1000 n
b1 3
b1 ^
b10001000001100000000000000001 2
b10001000001100000000000000001 \
0"
#79
b1100100 ,
b1100100 T
b1100100 b
b1100100 o
b10000000000010000000000000100 -
b10000000000010000000000000100 G
b10000000000010000000000000100 m
#80
b1100100 >
b1100100 F
b1100100 _
b1100100 `
b0 a
0@
b100000000000000001110 8
b100000000000000001110 L
b100000000000000001110 u
1?
0;
#81
b100000000000000001101 c
b100000000000000001101 [
b10000000000000000110100 :
b10000000000000000110100 !
b100000000000000001101 D
1"
#82
b11011110101011011011111011101111 O
b100000000011010 S
b10000000000010000000001101000 )
b10000000000010000000001101000 q
b10000000000010000000001101000 x
b10000000000010000000001101000 y
b10000000000010000000001101000 5
b10000000000010000000001101000 E
b10000000000010000000001101000 N
b10000000000010000000001101000 v
b1100100 Q
#83
b100000000000000001110 0
b100000000000000001110 C
b100000000000000001110 I
b100000000000000001110 J
b10000000000010000000001101000 k
b100000000000000001110 9
b100000000000000001110 M
b100000000000000001110 e
b100000000000000001110 s
#84
b11111 (
b11111 h
b11111 l
b11111 j
b111111111111111111100000100000 t
b100000 4
b100000 V
1Y
b0 /
b0 X
b11111 .
b11111 g
b0 *
b0 f
b0 p
b11111111111111111111100000100000 3
b11111111111111111111100000100000 ^
b1000000001111100000100000 2
b1000000001111100000100000 \
0"
#85
b0 >
b0 F
b0 _
b0 `
b0 ,
b0 T
b0 b
b0 o
#86
16
b11111111100000101110 8
b11111111100000101110 L
b11111111100000101110 u
0?
#87
b100000000000000001110 c
b100000000000000001110 [
b10000000000000000111000 :
b10000000000000000111000 !
b100000000000000001110 D
b10000000000010000000001101000 <"
b1100100 O
b100000000000001 S
b10000000000010000000000000100 )
b10000000000010000000000000100 q
b10000000000010000000000000100 x
b10000000000010000000000000100 y
b10000000000010000000000000100 5
b10000000000010000000000000100 E
b10000000000010000000000000100 N
b10000000000010000000000000100 v
1"
#88
b10000000000010000000000000100 k
b0 Q
#89
b100000000000000001111 0
b100000000000000001111 C
b100000000000000001111 I
b100000000000000001111 J
b100000000000000001111 9
b100000000000000001111 M
b100000000000000001111 e
b100000000000000001111 s
#90
b1100 (
b1100 h
b1100 l
b1100 j
b110000000101010 t
b101010 4
b101010 V
b1100 .
b1100 g
b101 *
b101 f
b101 p
b1011 +
b1011 n
b110000000101010 3
b110000000101010 ^
b1011001010110000000101010 2
b1011001010110000000101010 \
0"
#91
b10000000000 >
b10000000000 F
b10000000000 _
b10000000000 `
b10000000000 ,
b10000000000 T
b10000000000 b
b10000000000 o
b10000000000010000010000000100 -
b10000000000010000010000000100 G
b10000000000010000010000000100 m
#92
b100 A
b100 H
b100 Z
b100000110000000111001 8
b100000110000000111001 L
b100000110000000111001 u
#93
b100000000000000001111 c
b100000000000000001111 [
b10000000000010000000000000100 )"
b10000000000000000111100 :
b10000000000000000111100 !
b100000000000000001111 D
1"
#94
b11011110101011011011111011101111 O
b0 S
b0 )
b0 q
b0 x
0R
b0 y
b0 5
b0 E
b0 N
b0 v
b10000000000 Q
#95
b100000000000000010000 0
b100000000000000010000 C
b100000000000000010000 I
b100000000000000010000 J
b0 k
b100000000000000010000 9
b100000000000000010000 M
b100000000000000010000 e
b100000000000000010000 s
#96
b1101 (
b1101 h
b1101 l
b1101 j
b110100000101010 t
b1101 .
b1101 g
b111 *
b111 f
b111 p
b110 +
b110 n
b110100000101010 3
b110100000101010 ^
b110001110110100000101010 2
b110001110110100000101010 \
0"
#97
b0 >
b0 F
b0 _
b0 `
b0 ,
b0 T
b0 b
b0 o
b1100100 -
b1100100 G
b1100100 m
#98
b100000110100000111010 8
b100000110100000111010 L
b100000110100000111010 u
#99
b100000000000000010000 c
b100000000000000010000 [
b10000000000000001000000 :
b10000000000000001000000 !
b100000000000000010000 D
b0 *"
1"
#100
b0 Q
#101
b100000000000000010001 0
b100000000000000010001 C
b100000000000000010001 I
b100000000000000010001 J
b100000000000000010001 9
b100000000000000010001 M
b100000000000000010001 e
b100000000000000010001 s
#102
b1110 (
b1110 h
b1110 l
b1110 j
b111000000100101 t
b100101 4
b100101 V
b1110 .
b1110 g
b100 *
b100 f
b100 p
b1011 +
b1011 n
b111000000100101 3
b111000000100101 ^
b1011001000111000000100101 2
b1011001000111000000100101 \
0"
#103
b11111111 >
b11111111 F
b11111111 _
b11111111 `
b11111111 ,
b11111111 T
b11111111 b
b11111111 o
b10000000000010000010000000100 -
b10000000000010000010000000100 G
b10000000000010000010000000100 m
#104
b11 A
b11 H
b11 Z
b100000111000000110110 8
b100000111000000110110 L
b100000111000000110110 u
#105
b100000000000000010001 c
b100000000000000010001 [
b0 +"
b10000000000000001000100 :
b10000000000000001000100 !
b100000000000000010001 D
1"
