Lab9/cp0.vcd
$date
	Fri Oct 26 12:13:13 2018
$end
$version
	Icarus Verilog
$end
$timescale
	1s
$end
$scope module cp0_test $end
$var wire 32 ! rd_data [31:0] $end
$var wire 1 " TakenInterrupt $end
$var wire 30 # EPC [29:0] $end
$var reg 1 $ ERET $end
$var reg 1 % MTC0 $end
$var reg 1 & TimerInterrupt $end
$var reg 1 ' clock $end
$var reg 30 ( next_pc [29:0] $end
$var reg 5 ) regnum [4:0] $end
$var reg 1 * reset $end
$var reg 32 + wr_data [31:0] $end
$scope module c0 $end
$var wire 30 , EPC [29:0] $end
$var wire 1 $ ERET $end
$var wire 1 % MTC0 $end
$var wire 1 " TakenInterrupt $end
$var wire 1 & TimerInterrupt $end
$var wire 1 - check1 $end
$var wire 1 . check2 $end
$var wire 1 / check3 $end
$var wire 1 0 check4 $end
$var wire 1 ' clock $end
$var wire 30 1 next_pc [29:0] $end
$var wire 5 2 regnum [4:0] $end
$var wire 1 * reset $end
$var wire 32 3 wr_data [31:0] $end
$var wire 32 4 user_status_ [31:0] $end
$var wire 30 5 temp [29:0] $end
$var wire 32 6 status_register [31:0] $end
$var wire 32 7 rd_data [31:0] $end
$var wire 1 8 exception_level $end
$var wire 32 9 decoder_out_ [31:0] $end
$var wire 1 : decode14th $end
$var wire 1 ; decode12th $end
$var wire 32 < cause_register [31:0] $end
$var wire 30 = EPC_D [29:0] $end
$scope module decoderrr $end
$var wire 1 % enable $end
$var wire 5 > in [4:0] $end
$var wire 32 ? out [31:0] $end
$upscope $end
$scope module reg_EPC $end
$var wire 1 ' clk $end
$var wire 1 . enable $end
$var wire 1 * reset $end
$var wire 30 @ d [29:0] $end
$var reg 30 A q [29:0] $end
$upscope $end
$scope module reg_exception_level $end
$var wire 1 ' clk $end
$var wire 1 B d $end
$var wire 1 " enable $end
$var wire 1 - reset $end
$var reg 1 8 q $end
$upscope $end
$scope module reg_user_status $end
$var wire 1 ' clk $end
$var wire 32 C d [31:0] $end
$var wire 1 ; enable $end
$var wire 1 * reset $end
$var reg 32 D q [31:0] $end
$upscope $end
$scope module regnumnum $end
$var wire 32 E A [31:0] $end
$var wire 32 F B [31:0] $end
$var wire 32 G C [31:0] $end
$var wire 32 H D [31:0] $end
$var wire 32 I E [31:0] $end
$var wire 32 J F [31:0] $end
$var wire 32 K G [31:0] $end
$var wire 32 L H [31:0] $end
$var wire 32 M I [31:0] $end
$var wire 32 N J [31:0] $end
$var wire 32 O K [31:0] $end
$var wire 32 P L [31:0] $end
$var wire 32 Q M [31:0] $end
$var wire 32 R N [31:0] $end
$var wire 32 S O [31:0] $end
$var wire 32 T P [31:0] $end
$var wire 32 U a [31:0] $end
$var wire 32 V b [31:0] $end
$var wire 32 W c [31:0] $end
$var wire 32 X d [31:0] $end
$var wire 32 Y e [31:0] $end
$var wire 32 Z f [31:0] $end
$var wire 32 [ g [31:0] $end
$var wire 32 \ h [31:0] $end
$var wire 32 ] i [31:0] $end
$var wire 32 ^ j [31:0] $end
$var wire 32 _ k [31:0] $end
$var wire 32 ` l [31:0] $end
$var wire 32 a m [31:0] $end
$var wire 32 b n [31:0] $end
$var wire 32 c o [31:0] $end
$var wire 32 d p [31:0] $end
$var wire 5 e sel [4:0] $end
$var wire 32 f wlower [31:0] $end
$var wire 32 g wUPPER [31:0] $end
$var wire 32 h out [31:0] $end
$scope module m0 $end
$var wire 32 i A [31:0] $end
$var wire 32 j B [31:0] $end
$var wire 32 k C [31:0] $end
$var wire 32 l D [31:0] $end
$var wire 32 m E [31:0] $end
$var wire 32 n F [31:0] $end
$var wire 32 o G [31:0] $end
$var wire 32 p H [31:0] $end
$var wire 32 q I [31:0] $end
$var wire 32 r J [31:0] $end
$var wire 32 s K [31:0] $end
$var wire 32 t L [31:0] $end
$var wire 32 u M [31:0] $end
$var wire 32 v N [31:0] $end
$var wire 32 w O [31:0] $end
$var wire 32 x P [31:0] $end
$var wire 4 y sel [3:0] $end
$var wire 32 z wOP [31:0] $end
$var wire 32 { wMNOP [31:0] $end
$var wire 32 | wMN [31:0] $end
$var wire 32 } wKL [31:0] $end
$var wire 32 ~ wIJKLMNOP [31:0] $end
$var wire 32 !" wIJKL [31:0] $end
$var wire 32 "" wIJ [31:0] $end
$var wire 32 #" wGH [31:0] $end
$var wire 32 $" wEFGH [31:0] $end
$var wire 32 %" wEF [31:0] $end
$var wire 32 &" wCD [31:0] $end
$var wire 32 '" wABCDEFGH [31:0] $end
$var wire 32 (" wABCD [31:0] $end
$var wire 32 )" wAB [31:0] $end
$var wire 32 *" out [31:0] $end
$scope module mAB $end
$var wire 32 +" A [31:0] $end
$var wire 32 ," B [31:0] $end
$var wire 32 -" out [31:0] $end
$var wire 1 ." sel $end
$var wire 32 /" temp1 [31:0] $end
$var wire 32 0" temp2 [31:0] $end
$upscope $end
$scope module mABCD $end
$var wire 32 1" A [31:0] $end
$var wire 32 2" out [31:0] $end
$var wire 1 3" sel $end
$var wire 32 4" temp1 [31:0] $end
$var wire 32 5" temp2 [31:0] $end
$var wire 32 6" B [31:0] $end
$upscope $end
$scope module mABCDEFGH $end
$var wire 32 7" A [31:0] $end
$var wire 32 8" out [31:0] $end
$var wire 1 9" sel $end
$var wire 32 :" temp1 [31:0] $end
$var wire 32 ;" temp2 [31:0] $end
$var wire 32 <" B [31:0] $end
$upscope $end
$scope module mCD $end
$var wire 32 =" A [31:0] $end
$var wire 32 >" B [31:0] $end
$var wire 32 ?" out [31:0] $end
$var wire 1 @" sel $end
$var wire 32 A" temp1 [31:0] $end
$var wire 32 B" temp2 [31:0] $end
$upscope $end
$scope module mEF $end
$var wire 32 C" A [31:0] $end
$var wire 32 D" B [31:0] $end
$var wire 32 E" out [31:0] $end
$var wire 1 F" sel $end
$var wire 32 G" temp1 [31:0] $end
$var wire 32 H" temp2 [31:0] $end
$upscope $end
$scope module mEFGH $end
$var wire 32 I" A [31:0] $end
$var wire 32 J" out [31:0] $end
$var wire 1 K" sel $end
$var wire 32 L" temp1 [31:0] $end
$var wire 32 M" temp2 [31:0] $end
$var wire 32 N" B [31:0] $end
$upscope $end
$scope module mGH $end
$var wire 32 O" A [31:0] $end
$var wire 32 P" B [31:0] $end
$var wire 32 Q" out [31:0] $end
$var wire 1 R" sel $end
$var wire 32 S" temp1 [31:0] $end
$var wire 32 T" temp2 [31:0] $end
$upscope $end
$scope module mIJ $end
$var wire 32 U" A [31:0] $end
$var wire 32 V" B [31:0] $end
$var wire 32 W" out [31:0] $end
$var wire 1 X" sel $end
$var wire 32 Y" temp1 [31:0] $end
$var wire 32 Z" temp2 [31:0] $end
$upscope $end
$scope module mIJKL $end
$var wire 32 [" A [31:0] $end
$var wire 32 \" out [31:0] $end
$var wire 1 ]" sel $end
$var wire 32 ^" temp1 [31:0] $end
$var wire 32 _" temp2 [31:0] $end
$var wire 32 `" B [31:0] $end
$upscope $end
$scope module mIJKLMNOP $end
$var wire 32 a" A [31:0] $end
$var wire 32 b" out [31:0] $end
$var wire 1 c" sel $end
$var wire 32 d" temp1 [31:0] $end
$var wire 32 e" temp2 [31:0] $end
$var wire 32 f" B [31:0] $end
$upscope $end
$scope module mKL $end
$var wire 32 g" A [31:0] $end
$var wire 32 h" B [31:0] $end
$var wire 32 i" out [31:0] $end
$var wire 1 j" sel $end
$var wire 32 k" temp1 [31:0] $end
$var wire 32 l" temp2 [31:0] $end
$upscope $end
$scope module mMN $end
$var wire 32 m" A [31:0] $end
$var wire 32 n" B [31:0] $end
$var wire 32 o" out [31:0] $end
$var wire 1 p" sel $end
$var wire 32 q" temp1 [31:0] $end
$var wire 32 r" temp2 [31:0] $end
$upscope $end
$scope module mMNOP $end
$var wire 32 s" A [31:0] $end
$var wire 32 t" out [31:0] $end
$var wire 1 u" sel $end
$var wire 32 v" temp1 [31:0] $end
$var wire 32 w" temp2 [31:0] $end
$var wire 32 x" B [31:0] $end
$upscope $end
$scope module mOP $end
$var wire 32 y" A [31:0] $end
$var wire 32 z" B [31:0] $end
$var wire 32 {" out [31:0] $end
$var wire 1 |" sel $end
$var wire 32 }" temp1 [31:0] $end
$var wire 32 ~" temp2 [31:0] $end
$upscope $end
$scope module mfinal $end
$var wire 32 !# A [31:0] $end
$var wire 32 "# B [31:0] $end
$var wire 32 ## out [31:0] $end
$var wire 1 $# sel $end
$var wire 32 %# temp1 [31:0] $end
$var wire 32 &# temp2 [31:0] $end
$upscope $end
$upscope $end
$scope module m1 $end
$var wire 32 '# A [31:0] $end
$var wire 32 (# B [31:0] $end
$var wire 32 )# C [31:0] $end
$var wire 32 *# D [31:0] $end
$var wire 32 +# E [31:0] $end
$var wire 32 ,# F [31:0] $end
$var wire 32 -# G [31:0] $end
$var wire 32 .# H [31:0] $end
$var wire 32 /# I [31:0] $end
$var wire 32 0# J [31:0] $end
$var wire 32 1# K [31:0] $end
$var wire 32 2# L [31:0] $end
$var wire 32 3# M [31:0] $end
$var wire 32 4# N [31:0] $end
$var wire 32 5# O [31:0] $end
$var wire 32 6# P [31:0] $end
$var wire 4 7# sel [3:0] $end
$var wire 32 8# wOP [31:0] $end
$var wire 32 9# wMNOP [31:0] $end
$var wire 32 :# wMN [31:0] $end
$var wire 32 ;# wKL [31:0] $end
$var wire 32 <# wIJKLMNOP [31:0] $end
$var wire 32 =# wIJKL [31:0] $end
$var wire 32 ># wIJ [31:0] $end
$var wire 32 ?# wGH [31:0] $end
$var wire 32 @# wEFGH [31:0] $end
$var wire 32 A# wEF [31:0] $end
$var wire 32 B# wCD [31:0] $end
$var wire 32 C# wABCDEFGH [31:0] $end
$var wire 32 D# wABCD [31:0] $end
$var wire 32 E# wAB [31:0] $end
$var wire 32 F# out [31:0] $end
$scope module mAB $end
$var wire 32 G# A [31:0] $end
$var wire 32 H# B [31:0] $end
$var wire 32 I# out [31:0] $end
$var wire 1 J# sel $end
$var wire 32 K# temp1 [31:0] $end
$var wire 32 L# temp2 [31:0] $end
$upscope $end
$scope module mABCD $end
$var wire 32 M# A [31:0] $end
$var wire 32 N# out [31:0] $end
$var wire 1 O# sel $end
$var wire 32 P# temp1 [31:0] $end
$var wire 32 Q# temp2 [31:0] $end
$var wire 32 R# B [31:0] $end
$upscope $end
$scope module mABCDEFGH $end
$var wire 32 S# A [31:0] $end
$var wire 32 T# out [31:0] $end
$var wire 1 U# sel $end
$var wire 32 V# temp1 [31:0] $end
$var wire 32 W# temp2 [31:0] $end
$var wire 32 X# B [31:0] $end
$upscope $end
$scope module mCD $end
$var wire 32 Y# A [31:0] $end
$var wire 32 Z# B [31:0] $end
$var wire 32 [# out [31:0] $end
$var wire 1 \# sel $end
$var wire 32 ]# temp1 [31:0] $end
$var wire 32 ^# temp2 [31:0] $end
$upscope $end
$scope module mEF $end
$var wire 32 _# A [31:0] $end
$var wire 32 `# B [31:0] $end
$var wire 32 a# out [31:0] $end
$var wire 1 b# sel $end
$var wire 32 c# temp1 [31:0] $end
$var wire 32 d# temp2 [31:0] $end
$upscope $end
$scope module mEFGH $end
$var wire 32 e# A [31:0] $end
$var wire 32 f# out [31:0] $end
$var wire 1 g# sel $end
$var wire 32 h# temp1 [31:0] $end
$var wire 32 i# temp2 [31:0] $end
$var wire 32 j# B [31:0] $end
$upscope $end
$scope module mGH $end
$var wire 32 k# A [31:0] $end
$var wire 32 l# B [31:0] $end
$var wire 32 m# out [31:0] $end
$var wire 1 n# sel $end
$var wire 32 o# temp1 [31:0] $end
$var wire 32 p# temp2 [31:0] $end
$upscope $end
$scope module mIJ $end
$var wire 32 q# A [31:0] $end
$var wire 32 r# B [31:0] $end
$var wire 32 s# out [31:0] $end
$var wire 1 t# sel $end
$var wire 32 u# temp1 [31:0] $end
$var wire 32 v# temp2 [31:0] $end
$upscope $end
$scope module mIJKL $end
$var wire 32 w# A [31:0] $end
$var wire 32 x# out [31:0] $end
$var wire 1 y# sel $end
$var wire 32 z# temp1 [31:0] $end
$var wire 32 {# temp2 [31:0] $end
$var wire 32 |# B [31:0] $end
$upscope $end
$scope module mIJKLMNOP $end
$var wire 32 }# A [31:0] $end
$var wire 32 ~# out [31:0] $end
$var wire 1 !$ sel $end
$var wire 32 "$ temp1 [31:0] $end
$var wire 32 #$ temp2 [31:0] $end
$var wire 32 $$ B [31:0] $end
$upscope $end
$scope module mKL $end
$var wire 32 %$ A [31:0] $end
$var wire 32 &$ B [31:0] $end
$var wire 32 '$ out [31:0] $end
$var wire 1 ($ sel $end
$var wire 32 )$ temp1 [31:0] $end
$var wire 32 *$ temp2 [31:0] $end
$upscope $end
$scope module mMN $end
$var wire 32 +$ A [31:0] $end
$var wire 32 ,$ B [31:0] $end
$var wire 32 -$ out [31:0] $end
$var wire 1 .$ sel $end
$var wire 32 /$ temp1 [31:0] $end
$var wire 32 0$ temp2 [31:0] $end
$upscope $end
$scope module mMNOP $end
$var wire 32 1$ A [31:0] $end
$var wire 32 2$ out [31:0] $end
$var wire 1 3$ sel $end
$var wire 32 4$ temp1 [31:0] $end
$var wire 32 5$ temp2 [31:0] $end
$var wire 32 6$ B [31:0] $end
$upscope $end
$scope module mOP $end
$var wire 32 7$ A [31:0] $end
$var wire 32 8$ B [31:0] $end
$var wire 32 9$ out [31:0] $end
$var wire 1 :$ sel $end
$var wire 32 ;$ temp1 [31:0] $end
$var wire 32 <$ temp2 [31:0] $end
$upscope $end
$scope module mfinal $end
$var wire 32 =$ A [31:0] $end
$var wire 32 >$ B [31:0] $end
$var wire 32 ?$ out [31:0] $end
$var wire 1 @$ sel $end
$var wire 32 A$ temp1 [31:0] $end
$var wire 32 B$ temp2 [31:0] $end
$upscope $end
$upscope $end
$scope module mfinal $end
$var wire 32 C$ A [31:0] $end
$var wire 32 D$ B [31:0] $end
$var wire 32 E$ out [31:0] $end
$var wire 1 F$ sel $end
$var wire 32 G$ temp1 [31:0] $end
$var wire 32 H$ temp2 [31:0] $end
$upscope $end
$upscope $end
$scope module takeninterrupt $end
$var wire 30 I$ A [29:0] $end
$var wire 30 J$ B [29:0] $end
$var wire 30 K$ out [29:0] $end
$var wire 1 " sel $end
$var wire 30 L$ temp1 [29:0] $end
$var wire 30 M$ temp2 [29:0] $end
$upscope $end
$upscope $end
$upscope $end
$enddefinitions $end
#0
$dumpvars
b0 M$
b0 L$
b0 K$
b0 J$
b0 I$
b0 H$
b0 G$
0F$
b0 E$
b0 D$
b0 C$
b0 B$
b0 A$
0@$
b0 ?$
b0 >$
b0 =$
b0 <$
b0 ;$
0:$
b0 9$
b0 8$
b0 7$
b0 6$
b0 5$
b0 4$
03$
b0 2$
b0 1$
b0 0$
b0 /$
0.$
b0 -$
b0 ,$
b0 +$
b0 *$
b0 )$
0($
b0 '$
b0 &$
b0 %$
b0 $$
b0 #$
b0 "$
0!$
b0 ~#
b0 }#
b0 |#
b0 {#
b0 z#
0y#
b0 x#
b0 w#
b0 v#
b0 u#
0t#
b0 s#
b0 r#
b0 q#
b0 p#
b0 o#
0n#
b0 m#
b0 l#
b0 k#
b0 j#
b0 i#
b0 h#
0g#
b0 f#
b0 e#
b0 d#
b0 c#
0b#
b0 a#
b0 `#
b0 _#
b0 ^#
b0 ]#
0\#
b0 [#
b0 Z#
b0 Y#
b0 X#
b0 W#
b0 V#
0U#
b0 T#
b0 S#
b0 R#
b0 Q#
b0 P#
0O#
b0 N#
b0 M#
b0 L#
b0 K#
0J#
b0 I#
b0 H#
b0 G#
b0 F#
b0 E#
b0 D#
b0 C#
b0 B#
b0 A#
b0 @#
b0 ?#
b0 >#
b0 =#
b0 <#
b0 ;#
b0 :#
b0 9#
b0 8#
b0 7#
b0 6#
b0 5#
b0 4#
b0 3#
b0 2#
b0 1#
b0 0#
b0 /#
b0 .#
b0 -#
b0 ,#
b0 +#
b0 *#
b0 )#
b0 (#
b0 '#
b0 &#
b0 %#
0$#
b0 ##
b0 "#
b0 !#
b0 ~"
bx00 }"
0|"
bx00 {"
b0 z"
bx00 y"
bx00 x"
b0 w"
b0xxxxxxxx000000xx v"
0u"
b0xxxxxxxx000000xx t"
b0xxxxxxxx000000xx s"
b0 r"
b0xxxxxxxx000000xx q"
0p"
b0xxxxxxxx000000xx o"
b0 n"
b0xxxxxxxx000000xx m"
b0 l"
b0 k"
0j"
b0 i"
b0 h"
b0 g"
b0xxxxxxxx000000xx f"
b0 e"
b0 d"
0c"
b0 b"
b0 a"
b0 `"
b0 _"
b0 ^"
0]"
b0 \"
b0 ["
b0 Z"
b0 Y"
0X"
b0 W"
b0 V"
b0 U"
b0 T"
b0 S"
0R"
b0 Q"
b0 P"
b0 O"
b0 N"
b0 M"
b0 L"
0K"
b0 J"
b0 I"
b0 H"
b0 G"
0F"
b0 E"
b0 D"
b0 C"
b0 B"
b0 A"
0@"
b0 ?"
b0 >"
b0 ="
b0 <"
b0 ;"
b0 :"
09"
b0 8"
b0 7"
b0 6"
b0 5"
b0 4"
03"
b0 2"
b0 1"
b0 0"
b0 /"
0."
b0 -"
b0 ,"
b0 +"
b0 *"
b0 )"
b0 ("
b0 '"
b0 &"
b0 %"
b0 $"
b0 #"
b0 ""
b0 !"
b0 ~
b0 }
b0xxxxxxxx000000xx |
b0xxxxxxxx000000xx {
bx00 z
b0 y
b0 x
bx00 w
b0 v
b0xxxxxxxx000000xx u
b0 t
b0 s
b0 r
b0 q
b0 p
b0 o
b0 n
b0 m
b0 l
b0 k
b0 j
b0 i
b0 h
b0 g
b0 f
b0 e
b0 d
bx00 c
b0 b
b0xxxxxxxx000000xx a
b0 `
b0 _
b0 ^
b0 ]
b0 \
b0 [
b0 Z
b0 Y
b0 X
b0 W
b0 V
b0 U
b0 T
b0 S
b0 R
b0 Q
b0 P
b0 O
b0 N
b0 M
b0 L
b0 K
b0 J
b0 I
b0 H
b0 G
b0 F
b0 E
bx D
b0 C
1B
bx A
b0 @
b0 ?
b0 >
b0 =
b0 <
0;
0:
b0 9
x8
b0 7
b0xxxxxxxx000000xx 6
bx 5
bx 4
b0 3
b0 2
b0 1
x0
0/
0.
1-
bx ,
b0 +
1*
b0 )
b0 (
0'
0&
0%
0$
bx #
0"
b0 !
$end
#5
b0 {
b0 f"
b0 t"
00
b0 v"
b0 |
b0 o"
b0 s"
b0 z
b0 x"
b0 {"
b0 q"
b0 }"
b0 4
b0 D
b0 6
b0 a
b0 u
b0 m"
08
b0 c
b0 w
b0 y"
b0 #
b0 ,
b0 5
b0 A
1'
#10
b111111111111111111111111111111 =
b111111111111111111111111111111 @
b111111111111111111111111111111 K$
b111111111111111111111111111111 L$
19"
1c"
1$#
1U#
1!$
1@$
1;
b111111111111111111111111111111 I$
b1100 y
b1100 7#
b1000000000000 9
b1000000000000 ?
0-
0'
b11111111111111111111111111111111 +
b11111111111111111111111111111111 3
b11111111111111111111111111111111 C
b1100 )
b1100 2
b1100 >
b1100 e
1%
0*
#15
b1111111100000001 !
b1111111100000001 7
b1111111100000001 h
b1111111100000001 E$
b1111111100000001 G$
b1111111100000001 f
b1111111100000001 *"
b1111111100000001 ##
b1111111100000001 C$
b1111111100000001 &#
b1111111100000001 ~
b1111111100000001 b"
b1111111100000001 "#
b1111111100000001 e"
b1111111100000001 {
b1111111100000001 f"
b1111111100000001 t"
b1111111100000001 v"
10
b1111111100000001 |
b1111111100000001 o"
b1111111100000001 s"
b1111111100000001 q"
b1111111100000001 6
b1111111100000001 a
b1111111100000001 u
b1111111100000001 m"
b11111111111111111111111111111111 4
b11111111111111111111111111111111 D
1'
#20
0;
b0 9
b0 ?
0'
0%
#25
1'
#30
b100000000000000000001 =
b100000000000000000001 @
b100000000000000000001 K$
b0 L$
b100000000000000000001 M$
1.
1"
1/
0'
b100000000000000000001 (
b100000000000000000001 1
b100000000000000000001 J$
b1000000000000000 <
b1000000000000000 b
b1000000000000000 v
b1000000000000000 n"
1&
#35
b1111111100000011 !
b1111111100000011 7
b1111111100000011 h
b1111111100000011 E$
b1111111100000011 G$
b1111111100000011 f
b1111111100000011 *"
b1111111100000011 ##
b1111111100000011 C$
b1111111100000011 &#
b111111111111111111111111111111 =
b111111111111111111111111111111 @
b111111111111111111111111111111 K$
b1111111100000011 ~
b1111111100000011 b"
b1111111100000011 "#
b111111111111111111111111111111 L$
b0 M$
0.
b1111111100000011 e"
0"
b1111111100000011 {
b1111111100000011 f"
b1111111100000011 t"
00
b1111111100000011 v"
b10000000000000000000100 z
b10000000000000000000100 x"
b10000000000000000000100 {"
b1111111100000011 |
b1111111100000011 o"
b1111111100000011 s"
b10000000000000000000100 }"
b1111111100000011 q"
b10000000000000000000100 c
b10000000000000000000100 w
b10000000000000000000100 y"
b100000000000000000001 #
b100000000000000000001 ,
b100000000000000000001 5
b100000000000000000001 A
b1111111100000011 6
b1111111100000011 a
b1111111100000011 u
b1111111100000011 m"
18
1'
#40
0'
b100000000000000000010 (
b100000000000000000010 1
b100000000000000000010 J$
#45
1'
#50
b10000000000000000000100 !
b10000000000000000000100 7
b10000000000000000000100 h
b10000000000000000000100 E$
b10000000000000000000100 G$
b10000000000000000000100 f
b10000000000000000000100 *"
b10000000000000000000100 ##
b10000000000000000000100 C$
b10000000000000000000100 &#
b10000000000000000000100 ~
b10000000000000000000100 b"
b10000000000000000000100 "#
b10000000000000000000100 e"
b10000000000000000000100 {
b10000000000000000000100 f"
b10000000000000000000100 t"
b0 v"
b10000000000000000000100 w"
13"
1K"
1]"
1u"
1O#
1g#
1y#
13$
b1110 y
b1110 7#
0'
b1110 )
b1110 2
b1110 >
b1110 e
#55
1'
#60
b1000000000000000 !
b1000000000000000 7
b1000000000000000 h
b1000000000000000 E$
b1000000000000000 G$
b1000000000000000 f
b1000000000000000 *"
b1000000000000000 ##
b1000000000000000 C$
b1000000000000000 &#
b1000000000000000 ~
b1000000000000000 b"
b1000000000000000 "#
b1000000000000000 e"
b1000000000000000 |
b1000000000000000 o"
b1000000000000000 s"
b0 z
b0 x"
b0 {"
b1000000000000000 {
b1000000000000000 f"
b1000000000000000 t"
b0 q"
b1000000000000000 r"
b0 }"
b1000000000000000 v"
b0 w"
1."
1@"
1F"
1R"
1X"
1j"
1p"
1|"
03"
0K"
0]"
0u"
1J#
1\#
1b#
1n#
1t#
1($
1.$
1:$
0O#
0g#
0y#
03$
b1101 y
b1101 7#
0'
b1101 )
b1101 2
b1101 >
b1101 e
#65
1'
#70
b0 !
b0 7
b0 h
b0 E$
b0 G$
b0 f
b0 *"
b0 ##
b0 C$
b0 &#
b0 ~
b0 b"
b0 "#
b0 e"
b0 {
b0 f"
b0 t"
b0 v"
0/
b0 |
b0 o"
b0 s"
1-
b0 r"
0'
1$
b0 <
b0 b
b0 v
b0 n"
0&
#75
10
b1111111100000001 6
b1111111100000001 a
b1111111100000001 u
b1111111100000001 m"
08
1'
#80
b1111111100000001 !
b1111111100000001 7
b1111111100000001 h
b1111111100000001 E$
b1111111100000001 G$
b1111111100000001 f
b1111111100000001 *"
b1111111100000001 ##
b1111111100000001 C$
b1111111100000001 &#
b1111111100000001 ~
b1111111100000001 b"
b1111111100000001 "#
b1111111100000001 e"
b1111111100000001 {
b1111111100000001 f"
b1111111100000001 t"
b1111111100000001 v"
b1111111100000001 |
b1111111100000001 o"
b1111111100000001 s"
b10000000000000000000100 z
b10000000000000000000100 x"
b10000000000000000000100 {"
b1111111100000001 q"
b10000000000000000000100 }"
0."
0@"
0F"
0R"
0X"
0j"
0p"
0|"
0J#
0\#
0b#
0n#
0t#
0($
0.$
0:$
b1100 y
b1100 7#
0'
b1100 )
b1100 2
b1100 >
b1100 e
#85
1'
#90
b0 !
b0 7
b0 h
b0 E$
b0 G$
b0 f
b0 *"
b0 ##
b0 C$
b0 &#
b0 ~
b0 b"
b0 "#
b0 e"
b0 {
b0 f"
b0 t"
b0 v"
b0 |
b0 o"
b0 s"
b0 z
b0 x"
b0 {"
b0 q"
b0 }"
1."
1@"
1F"
1R"
1X"
1j"
1p"
1|"
1J#
1\#
1b#
1n#
1t#
1($
1.$
1:$
b1101 y
b1101 7#
0'
b1101 )
b1101 2
b1101 >
b1101 e
