Lab1/sc2.vcd
$date
	Wed Aug 29 20:02:33 2018
$end
$version
	Icarus Verilog
$end
$timescale
	1s
$end
$scope module sc2_test $end
$var wire 1 ! s_out $end
$var wire 1 " cout_out $end
$var reg 1 # a_in $end
$var reg 1 $ b_in $end
$var reg 1 % cin_in $end
$scope module sc1 $end
$var wire 1 # a $end
$var wire 1 $ b $end
$var wire 1 % cin $end
$var wire 1 " cout $end
$var wire 1 & w3 $end
$var wire 1 ' w2 $end
$var wire 1 ( w1 $end
$var wire 1 ! s $end
$scope module sc1 $end
$var wire 1 # a $end
$var wire 1 $ b $end
$var wire 1 ' c $end
$var wire 1 ) not_a $end
$var wire 1 * not_b $end
$var wire 1 ( s $end
$var wire 1 + w1 $end
$var wire 1 , w2 $end
$upscope $end
$scope module sc2 $end
$var wire 1 ( a $end
$var wire 1 % b $end
$var wire 1 & c $end
$var wire 1 - not_a $end
$var wire 1 . not_b $end
$var wire 1 ! s $end
$var wire 1 / w1 $end
$var wire 1 0 w2 $end
$upscope $end
$upscope $end
$upscope $end
$enddefinitions $end
#0
$dumpvars
00
0/
1.
1-
0,
0+
1*
1)
0(
0'
0&
0%
0$
0#
0"
0!
$end
#10
1!
0.
10
1%
#20
0-
1/
1!
1(
1.
00
0*
1,
0%
1$
#30
1!
0-
1/
1+
1(
1*
0,
0)
0$
1#
#40
0!
1"
0/
1&
0.
0*
1,
1)
0+
1%
1$
0#
#50
0!
1"
00
1&
0-
1+
1(
1*
0,
0)
0$
1#
#60
1-
0!
0(
0/
0+
0&
1.
1'
0*
0%
1$
#70
1!
0.
10
1%
